/* XPM */
static char * tork_xpm[] = {
"32 32 171 2",
"  	c None",
". 	c #7C7C7C",
"+ 	c #7A7F7A",
"@ 	c #A1A1A1",
"# 	c #62AF5B",
"$ 	c #5BBD52",
"% 	c #7F957D",
"& 	c #9A8D9C",
"* 	c #A384A7",
"= 	c #A575AB",
"- 	c #748C72",
"; 	c #45E936",
"> 	c #4ADF3C",
", 	c #4ED741",
"' 	c #58C34E",
") 	c #7E757F",
"! 	c #46E637",
"~ 	c #4BDD3E",
"{ 	c #4CDA3F",
"] 	c #46E737",
"^ 	c #88768B",
"/ 	c #778675",
"( 	c #49E13B",
"_ 	c #48E13B",
": 	c #47E538",
"< 	c #6D926A",
"[ 	c #A682AC",
"} 	c #7C7D7C",
"| 	c #58C44E",
"1 	c #45E737",
"2 	c #44EA35",
"3 	c #50D245",
"4 	c #50D344",
"5 	c #7E767F",
"6 	c #798179",
"7 	c #5ABF51",
"8 	c #4FD443",
"9 	c #55C84B",
"0 	c #55C94A",
"a 	c #777E77",
"b 	c #8E7591",
"c 	c #6A9F66",
"d 	c #4CDA40",
"e 	c #52CF46",
"f 	c #5AC050",
"g 	c #61B15A",
"h 	c #7A737B",
"i 	c #907894",
"j 	c #70936D",
"k 	c #51D145",
"l 	c #53CD48",
"m 	c #4CDB3F",
"n 	c #6B9D67",
"o 	c #7C717F",
"p 	c #99819D",
"q 	c #53CC48",
"r 	c #47E439",
"s 	c #5FB458",
"t 	c #57C44E",
"u 	c #758274",
"v 	c #8B788D",
"w 	c #71916E",
"x 	c #4ADD3D",
"y 	c #5CBA54",
"z 	c #5EB756",
"A 	c #49E03C",
"B 	c #887F89",
"C 	c #44E935",
"D 	c #5EB656",
"E 	c #4ADE3D",
"F 	c #4BDC3E",
"G 	c #49DF3C",
"H 	c #60B358",
"I 	c #57C44D",
"J 	c #45E836",
"K 	c #65A85F",
"L 	c #858086",
"M 	c #6E986A",
"N 	c #46E638",
"O 	c #4DD940",
"P 	c #4DD841",
"Q 	c #56C74C",
"R 	c #4ED542",
"S 	c #61B259",
"T 	c #50D244",
"U 	c #44E936",
"V 	c #827983",
"W 	c #51D046",
"X 	c #51D045",
"Y 	c #5BBE52",
"Z 	c #60B259",
"` 	c #46E538",
" .	c #758974",
"..	c #928A92",
"+.	c #5CBB54",
"@.	c #54CA4A",
"#.	c #5BBC53",
"$.	c #4ED642",
"%.	c #4FD344",
"&.	c #60B359",
"*.	c #848384",
"=.	c #7A8179",
"-.	c #54CB49",
";.	c #5CBC53",
">.	c #4BDB3E",
",.	c #52CE47",
"'.	c #4CD940",
").	c #928D93",
"!.	c #6C9C67",
"~.	c #5FB557",
"{.	c #4DD840",
"].	c #59C24F",
"^.	c #56C64C",
"/.	c #6F956C",
"(.	c #888788",
"_.	c #64AB5E",
":.	c #57C54D",
"<.	c #59C050",
"[.	c #5FB558",
"}.	c #8A898A",
"|.	c #59C14F",
"1.	c #62B05B",
"2.	c #5ABE51",
"3.	c #66A860",
"4.	c #5DB954",
"5.	c #878687",
"6.	c #48E33A",
"7.	c #5DB955",
"8.	c #4BDD3D",
"9.	c #5BBC52",
"0.	c #69A264",
"a.	c #67A562",
"b.	c #63AE5C",
"c.	c #45E837",
"d.	c #64AB5D",
"e.	c #788576",
"f.	c #67A462",
"g.	c #768775",
"h.	c #7F7F7F",
"i.	c #5DB855",
"j.	c #65AA5E",
"k.	c #68A462",
"l.	c #66A661",
"m.	c #788477",
"n.	c #5EB855",
"o.	c #63AC5D",
"p.	c #6C9C68",
"q.	c #768974",
"r.	c #6AA065",
"s.	c #6A9F65",
"t.	c #63AD5D",
"u.	c #6D996A",
"v.	c #72906F",
"w.	c #67A661",
"x.	c #67A561",
"y.	c #66A760",
"z.	c #778576",
"A.	c #63AD5C",
"B.	c #69A064",
"C.	c #69A263",
"D.	c #56C74B",
"E.	c #778775",
"F.	c #6F966C",
"G.	c #66A761",
"H.	c #47E339",
"I.	c #49E03B",
"J.	c #69A164",
"K.	c #798278",
"L.	c #738E71",
"M.	c #748B72",
"N.	c #7A8079",
"                                                                ",
"                                                                ",
"                        . + @                                   ",
"                        . # $ % & * =                           ",
"                          - ; > , ' )                           ",
"                          . ! ~ { ] ^                           ",
"                        . / ( _ : , < [                         ",
"                        } | { 1 2 3 4 5                         ",
"                    . 6 7 2 8 2 2 9 2 0 a b                     ",
"                . . c d 2 2 e 2 2 f 2 2 : g h i                 ",
"            . . j e 2 2 2 1 k 2 2 l m 2 2 2 d n o p             ",
"          . / 7 2 2 2 2 2 q ] ~ r r s 2 2 2 2 2 t u v           ",
"        . w x 2 2 2 2 : y e 2 ~ { 2 4 z 1 2 2 2 2 A n B         ",
"      . c : 2 2 2 C q D E 2 C F 4 G 2 E H I J 2 2 2 ; K L       ",
"    . M N 2 2 2 O z 8 2 2 2 P r : Q 2 2 2 R S T 2 2 2 U n V     ",
"  . / _ 2 2 2 W $ C 2 2 2 2 X 2 2 Y 2 2 2 2 C ' Z ; 2 2 `  ...  ",
"  . $ 2 2 2 +.l 2 2 2 2 2 > @.N N #.$.2 2 2 2 2 %.&.J 2 2 $ *.  ",
". =.: 2 2 I -.2 2 2 2 J I ;.J >.,.2 $ 7 J 2 2 2 2 '.H 2 2 : =.).",
". !.2 2 O +.2 2 2 2 k ~.>.2 2 {.].2 2 >.~.@.2 2 2 2 ^.9 2 2 /.(.",
". &.2 2 _.1 2 2 2 ;.:.2 2 2 2 3 <.2 2 2 2 ,.# ; 2 2 U n ! 2 [.}.",
". |.2 ` 1.2 2 2 y ,.2 2 2 2 1 |.2.F 2 2 2 2 $.3.2 2 2 4.k 2 |.5.",
". ~.2 6.7.2 2 W 7 2 2 2 2 ; H 8.] # A 2 2 2 2 9.7 2 2 Q W 2 ~.. ",
". 0.2 J a.2 2 b.c.2 2 2 2 ~.x 2 2 r d.N 2 2 2 U c 2 2 g { 2 0.. ",
". e.N 2 S O 2 S 2 2 2 2 O +.2 2 2 2 8 9.2 2 2 2 S 2 2 f.2 J g.h.",
"  . i.2 r j.2 k.` 2 2 2 i.( 2 2 2 2 2 l.2 2 2 2 a.2 W 7.2 <..   ",
"  . m.E 2 n.8 e 7 2 2 2 Z C 2 2 2 2 2 S 2 2 2 G o.J p.: r q..   ",
"    . /.: ! r.r a.: 2 2 9.P 2 2 2 2 2 s.2 2 2 t.O [.Q ] u..     ",
"      . v.~ F w.O x.; 2 d o.2 2 2 2 ~ # 2 2 e s e y.r !..       ",
"        . z.9.k j.0 A.J 2 B.6.2 2 2 y.F 2 k C.D.y.t q..         ",
"          . . E.k.F.7.G.8 m a.H.2 7 s I.g w._.e.- . .           ",
"                . . . j / w J.K./ L.p.+ M.N.. .                 ",
"                      . . . . . . . . . .                       "};
